module gitlab.com/felkis60/rex-microservices-helpers

go 1.18

require (
	github.com/Kron0S/selectel-1 v0.0.0-20170907114538-6a40f8d2e31b
	github.com/joho/godotenv v1.4.0
	github.com/nfnt/resize v0.0.0-20180221191011-83c6a9932646
	github.com/nguyenthenguyen/docx v0.0.0-20220721043308-1903da0ef37d
	github.com/nyaruka/phonenumbers v1.1.0
	github.com/swaggo/swag v1.8.1
	gorm.io/gorm v1.24.1-0.20221019064659-5dd2bb482755
)

require (
	github.com/KyleBanks/depth v1.2.1 // indirect
	github.com/PuerkitoBio/purell v1.1.1 // indirect
	github.com/PuerkitoBio/urlesc v0.0.0-20170810143723-de5bf2ad4578 // indirect
	github.com/andybalholm/brotli v1.0.4 // indirect
	github.com/cespare/xxhash/v2 v2.1.2 // indirect
	github.com/dgryski/go-rendezvous v0.0.0-20200823014737-9f7001d12a5f // indirect
	github.com/gin-contrib/sse v0.1.0 // indirect
	github.com/go-openapi/jsonpointer v0.19.5 // indirect
	github.com/go-openapi/jsonreference v0.19.6 // indirect
	github.com/go-openapi/spec v0.20.4 // indirect
	github.com/go-openapi/swag v0.19.15 // indirect
	github.com/go-playground/locales v0.14.0 // indirect
	github.com/go-playground/universal-translator v0.18.0 // indirect
	github.com/go-playground/validator/v10 v10.11.0 // indirect
	github.com/goccy/go-json v0.9.10 // indirect
	github.com/golang/protobuf v1.5.2 // indirect
	github.com/jackc/chunkreader/v2 v2.0.1 // indirect
	github.com/jackc/pgconn v1.13.0 // indirect
	github.com/jackc/pgio v1.0.0 // indirect
	github.com/jackc/pgpassfile v1.0.0 // indirect
	github.com/jackc/pgproto3/v2 v2.3.1 // indirect
	github.com/jackc/pgservicefile v0.0.0-20200714003250-2b9c44734f2b // indirect
	github.com/jackc/pgtype v1.12.0 // indirect
	github.com/jackc/pgx/v4 v4.17.2 // indirect
	github.com/josharian/intern v1.0.0 // indirect
	github.com/json-iterator/go v1.1.12 // indirect
	github.com/leodido/go-urn v1.2.1 // indirect
	github.com/mailru/easyjson v0.7.6 // indirect
	github.com/mattn/go-isatty v0.0.16 // indirect
	github.com/modern-go/concurrent v0.0.0-20180306012644-bacd9c7ef1dd // indirect
	github.com/modern-go/reflect2 v1.0.2 // indirect
	github.com/nats-io/nats-server/v2 v2.9.0 // indirect
	github.com/nats-io/nkeys v0.3.0 // indirect
	github.com/nats-io/nuid v1.0.1 // indirect
	github.com/pelletier/go-toml/v2 v2.0.2 // indirect
	github.com/robertkrimen/otto v0.0.0-20221011175642-09fc211e5ab1 // indirect
	github.com/ugorji/go/codec v1.2.7 // indirect
	golang.org/x/crypto v0.0.0-20220829220503-c86fa9a7ed90 // indirect
	golang.org/x/net v0.0.0-20220812174116-3211cb980234 // indirect
	golang.org/x/sys v0.0.0-20220906135438-9e1f76180b77 // indirect
	golang.org/x/text v0.4.0 // indirect
	golang.org/x/tools v0.1.12 // indirect
	google.golang.org/genproto v0.0.0-20200526211855-cb27e3aa2013 // indirect
	google.golang.org/protobuf v1.28.1 // indirect
	gopkg.in/sourcemap.v1 v1.0.5 // indirect
	gopkg.in/yaml.v2 v2.4.0 // indirect
)

require (
	github.com/bas24/googletranslatefree v0.0.0-20220326200502-05ed9e639439
	github.com/ernado/selectel v0.0.0-20180425092417-d4f4d949c7b0
	github.com/gin-gonic/gin v1.8.1
	github.com/go-redis/redis v6.15.9+incompatible
	github.com/go-redis/redis/v8 v8.11.5
	github.com/gofrs/uuid v4.3.0+incompatible
	github.com/jinzhu/inflection v1.0.0 // indirect
	github.com/jinzhu/now v1.1.5 // indirect
	github.com/nats-io/nats.go v1.16.1-0.20220906180156-a1017eec10b0
	github.com/sirupsen/logrus v1.9.0
	github.com/swaggo/files v0.0.0-20220728132757-551d4a08d97a
	github.com/swaggo/gin-swagger v1.5.3
	google.golang.org/grpc v1.51.0
	gorm.io/driver/postgres v1.4.5
)
